accounting	73
amadeus	57
android	52
annual	93
bach	74
beethoven	64
benjamin	163
bible	54
bibliography	38
biography	39
books	158
bowen	128
brahms	55
bulletin	77
charles	198
committee	60
congress	111
congresses	149
criticism	62
david	301
dutch	70
early	44
electronic	81
energy	32
english	479
foreign	122
french	190
general	58
geological	56
german	198
government	55
history	142
house	58
image	64
interpretation	55
italian	127
japanese	40
johann	78
johannes	56
john	251
juvenile	115
latin	119
law	137
ludwig	69
manifestation	70
mozart	75
natural	55
office	53
periodicals	96
peter	163
poems	75
politics	53
proceedings	59
randall	99
relations	51
report	187
resources	30
rules	73
russian	87
scores	152
sebastian	66
selected	100
senate	57
sound	136
spanish	114
states	225
text	555
united	64
van	101
wolfgang	76
works	390
